%YAML 1.1
%TAG !u! tag:unity3d.com,2011:
--- !u!1001 &2444620515256146296
PrefabInstance:
  m_ObjectHideFlags: 0
  serializedVersion: 2
  m_Modification:
    m_TransformParent: {fileID: 0}
    m_Modifications:
    - target: {fileID: 3196397903789269321, guid: 9be956f17bf14e74696d2168fd088fb8,
        type: 3}
      propertyPath: m_Name
      value: EnemyDPS
      objectReference: {fileID: 0}
    - target: {fileID: 3196397903789269323, guid: 9be956f17bf14e74696d2168fd088fb8,
        type: 3}
      propertyPath: m_RootOrder
      value: 0
      objectReference: {fileID: 0}
    - target: {fileID: 3196397903789269323, guid: 9be956f17bf14e74696d2168fd088fb8,
        type: 3}
      propertyPath: m_LocalPosition.x
      value: 0
      objectReference: {fileID: 0}
    - target: {fileID: 3196397903789269323, guid: 9be956f17bf14e74696d2168fd088fb8,
        type: 3}
      propertyPath: m_LocalPosition.y
      value: 0
      objectReference: {fileID: 0}
    - target: {fileID: 3196397903789269323, guid: 9be956f17bf14e74696d2168fd088fb8,
        type: 3}
      propertyPath: m_LocalPosition.z
      value: 0
      objectReference: {fileID: 0}
    - target: {fileID: 3196397903789269323, guid: 9be956f17bf14e74696d2168fd088fb8,
        type: 3}
      propertyPath: m_LocalRotation.w
      value: 1
      objectReference: {fileID: 0}
    - target: {fileID: 3196397903789269323, guid: 9be956f17bf14e74696d2168fd088fb8,
        type: 3}
      propertyPath: m_LocalRotation.x
      value: 0
      objectReference: {fileID: 0}
    - target: {fileID: 3196397903789269323, guid: 9be956f17bf14e74696d2168fd088fb8,
        type: 3}
      propertyPath: m_LocalRotation.y
      value: 0
      objectReference: {fileID: 0}
    - target: {fileID: 3196397903789269323, guid: 9be956f17bf14e74696d2168fd088fb8,
        type: 3}
      propertyPath: m_LocalRotation.z
      value: 0
      objectReference: {fileID: 0}
    - target: {fileID: 3196397903789269323, guid: 9be956f17bf14e74696d2168fd088fb8,
        type: 3}
      propertyPath: m_LocalEulerAnglesHint.x
      value: 0
      objectReference: {fileID: 0}
    - target: {fileID: 3196397903789269323, guid: 9be956f17bf14e74696d2168fd088fb8,
        type: 3}
      propertyPath: m_LocalEulerAnglesHint.y
      value: 0
      objectReference: {fileID: 0}
    - target: {fileID: 3196397903789269323, guid: 9be956f17bf14e74696d2168fd088fb8,
        type: 3}
      propertyPath: m_LocalEulerAnglesHint.z
      value: 0
      objectReference: {fileID: 0}
    m_RemovedComponents: []
  m_SourcePrefab: {fileID: 100100000, guid: 9be956f17bf14e74696d2168fd088fb8, type: 3}
--- !u!1 &988236229379110961 stripped
GameObject:
  m_CorrespondingSourceObject: {fileID: 3196397903789269321, guid: 9be956f17bf14e74696d2168fd088fb8,
    type: 3}
  m_PrefabInstance: {fileID: 2444620515256146296}
  m_PrefabAsset: {fileID: 0}
--- !u!114 &3144111444070834931
MonoBehaviour:
  m_ObjectHideFlags: 0
  m_CorrespondingSourceObject: {fileID: 0}
  m_PrefabInstance: {fileID: 0}
  m_PrefabAsset: {fileID: 0}
  m_GameObject: {fileID: 988236229379110961}
  m_Enabled: 1
  m_EditorHideFlags: 0
  m_Script: {fileID: 11500000, guid: af89a817359d6944588cc1bc093a66d7, type: 3}
  m_Name: 
  m_EditorClassIdentifier: 
  enemyType: {fileID: 11400000, guid: 2002cd81a85304245b155eec45201206, type: 2}
  targetsToAttack:
  - {fileID: 11400000, guid: 0c024c9d535f5e941967ed7ee49e9d63, type: 2}
  stats: {fileID: 11400000, guid: e373ef1579c7120409c69a29dcbaabc7, type: 2}
